Date,Open,High,Low,Close,Adj Close,Volume
2020-07-01,4.309999942779541,4.5,4.309999942779541,4.440000057220459,4.440000057220459,2303700
2020-07-02,4.489999771118164,4.510000228881836,4.289999961853027,4.289999961853027,4.289999961853027,1887600
2020-07-06,4.309999942779541,4.340000152587891,4.190000057220459,4.239999771118164,4.239999771118164,2140900
2020-07-07,4.199999809265137,4.25,4.059999942779541,4.090000152587891,4.090000152587891,2456600
2020-07-08,4.099999904632568,4.289999961853027,4.03000020980835,4.260000228881836,4.260000228881836,2052800
2020-07-09,4.269999980926514,4.320000171661377,4.130000114440918,4.210000038146973,4.210000038146973,1992600
2020-07-10,4.199999809265137,4.380000114440918,4.179999828338623,4.340000152587891,4.340000152587891,1410800
2020-07-13,4.349999904632568,4.550000190734863,4.260000228881836,4.260000228881836,4.260000228881836,4216200
2020-07-14,4.21999979019165,4.309999942779541,4.070000171661377,4.079999923706055,4.079999923706055,2261600
2020-07-15,4.130000114440918,4.289999961853027,4.130000114440918,4.190000057220459,4.190000057220459,1474100
2020-07-16,4.190000057220459,4.199999809265137,4.090000152587891,4.170000076293945,4.170000076293945,1330100
2020-07-17,4.159999847412109,4.230000019073486,3.940000057220459,3.9600000381469727,3.9600000381469727,3065900
2020-07-20,3.950000047683716,4.059999942779541,3.7699999809265137,3.8499999046325684,3.8499999046325684,3401100
2020-07-21,3.9000000953674316,4.090000152587891,3.880000114440918,4.010000228881836,4.010000228881836,3337900
2020-07-22,4.019999980926514,4.119999885559082,3.9200000762939453,4.110000133514404,4.110000133514404,2523500
2020-07-23,4.090000152587891,4.309999942779541,4.059999942779541,4.110000133514404,4.110000133514404,3237200
2020-07-24,4.059999942779541,4.230000019073486,4.010000228881836,4.03000020980835,4.03000020980835,2215900
2020-07-27,4.019999980926514,4.119999885559082,3.950000047683716,4.010000228881836,4.010000228881836,2472700
2020-07-28,3.9600000381469727,4.050000190734863,3.9200000762939453,3.940000057220459,3.940000057220459,4555400
2020-07-29,3.940000057220459,4.179999828338623,3.9200000762939453,4.059999942779541,4.059999942779541,2879600
2020-07-30,4.0,4.230000019073486,3.9700000286102295,4.099999904632568,4.099999904632568,2398500
2020-07-31,4.059999942779541,4.159999847412109,3.990000009536743,4.010000228881836,4.010000228881836,1879400
2020-08-03,4.03000020980835,4.25,4.0,4.150000095367432,4.150000095367432,2517600
2020-08-04,4.130000114440918,4.739999771118164,4.130000114440918,4.429999828338623,4.429999828338623,10361400
2020-08-05,4.5,4.760000228881836,4.25,4.630000114440918,4.630000114440918,4919300
2020-08-06,4.599999904632568,4.659999847412109,4.380000114440918,4.429999828338623,4.429999828338623,1901200
2020-08-07,4.389999866485596,4.400000095367432,4.059999942779541,4.159999847412109,4.159999847412109,3341100
2020-08-10,4.199999809265137,4.570000171661377,4.179999828338623,4.329999923706055,4.329999923706055,4561800
2020-08-11,4.429999828338623,4.570000171661377,4.340000152587891,4.349999904632568,4.349999904632568,3138800
2020-08-12,4.400000095367432,4.630000114440918,4.360000133514404,4.519999980926514,4.519999980926514,3057600
2020-08-13,4.519999980926514,4.710000038146973,4.5,4.639999866485596,4.639999866485596,2128300
2020-08-14,4.599999904632568,4.829999923706055,4.550000190734863,4.75,4.75,3474400
2020-08-17,4.78000020980835,4.78000020980835,4.559999942779541,4.630000114440918,4.630000114440918,2371000
2020-08-18,4.610000133514404,4.869999885559082,4.429999828338623,4.809999942779541,4.809999942779541,3834400
2020-08-19,4.800000190734863,4.840000152587891,4.639999866485596,4.71999979019165,4.71999979019165,2612600
2020-08-20,4.619999885559082,4.679999828338623,4.510000228881836,4.610000133514404,4.610000133514404,2441200
2020-08-21,4.599999904632568,5.599999904632568,4.599999904632568,5.03000020980835,5.03000020980835,10642600
2020-08-24,5.099999904632568,5.130000114440918,4.559999942779541,4.869999885559082,4.869999885559082,4585400
2020-08-25,4.880000114440918,5.25,4.880000114440918,4.980000019073486,4.980000019073486,2998700
2020-08-26,4.96999979019165,5.21999979019165,4.920000076293945,5.110000133514404,5.110000133514404,2779700
2020-08-27,5.110000133514404,5.380000114440918,5.019999980926514,5.25,5.25,3384400
2020-08-28,5.300000190734863,5.570000171661377,5.21999979019165,5.389999866485596,5.389999866485596,4236900
2020-08-31,5.769999980926514,7.150000095367432,5.690000057220459,6.679999828338623,6.679999828338623,37976000
2020-09-01,7.300000190734863,7.820000171661377,6.769999980926514,7.650000095367432,7.650000095367432,23158600
2020-09-02,7.800000190734863,8.050000190734863,7.110000133514404,7.710000038146973,7.710000038146973,13011100
2020-09-03,7.880000114440918,8.449999809265137,7.239999771118164,7.820000171661377,7.820000171661377,14344500
2020-09-04,7.78000020980835,7.920000076293945,7.170000076293945,7.650000095367432,7.650000095367432,7662000
2020-09-08,7.550000190734863,8.279999732971191,7.480000019073486,7.699999809265137,7.699999809265137,9816600
2020-09-09,7.960000038146973,7.989999771118164,7.309999942779541,7.349999904632568,7.349999904632568,9068100
2020-09-10,6.650000095367432,6.949999809265137,6.190000057220459,6.230000019073486,6.230000019073486,15558300
2020-09-11,6.260000228881836,6.329999923706055,5.869999885559082,6.090000152587891,6.090000152587891,6061200
2020-09-14,6.800000190734863,7.0,6.429999828338623,6.909999847412109,6.909999847412109,10119000
2020-09-15,6.860000133514404,7.260000228881836,6.690000057220459,7.090000152587891,7.090000152587891,5743500
2020-09-16,7.03000020980835,9.039999961853027,7.03000020980835,8.680000305175781,8.680000305175781,19256300
2020-09-17,8.569999694824219,9.770000457763672,8.40999984741211,9.199999809265137,9.199999809265137,17026700
2020-09-18,9.199999809265137,9.770000457763672,8.90999984741211,9.470000267028809,9.470000267028809,17407500
2020-09-21,9.350000381469727,9.600000381469727,8.380000114440918,8.75,8.75,7639800
2020-09-22,10.449999809265137,11.170000076293945,9.899999618530273,10.5600004196167,10.5600004196167,34752500
2020-09-23,10.600000381469727,10.859999656677246,9.920000076293945,10.039999961853027,10.039999961853027,10651200
2020-09-24,9.710000038146973,9.8100004196167,9.010000228881836,9.140000343322754,9.140000343322754,7938800
2020-09-25,9.1899995803833,10.180000305175781,9.100000381469727,10.020000457763672,10.020000457763672,7515200
2020-09-28,10.15999984741211,10.260000228881836,9.550000190734863,10.09000015258789,10.09000015258789,6764300
2020-09-29,10.0,10.649999618530273,9.930000305175781,10.350000381469727,10.350000381469727,5237600
2020-09-30,10.25,10.760000228881836,10.0600004196167,10.199999809265137,10.199999809265137,6079000
2020-10-01,10.09000015258789,10.25,9.6899995803833,9.770000457763672,9.770000457763672,4554100
2020-10-02,9.380000114440918,9.779999732971191,9.300000190734863,9.390000343322754,9.390000343322754,4340500
2020-10-05,9.4399995803833,9.59000015258789,9.25,9.460000038146973,9.460000038146973,2805000
2020-10-06,9.5600004196167,9.84000015258789,9.100000381469727,9.130000114440918,9.130000114440918,4535400
2020-10-07,9.229999542236328,9.5600004196167,9.170000076293945,9.359999656677246,9.359999656677246,3308600
2020-10-08,9.539999961853027,13.640000343322754,9.1899995803833,13.489999771118164,13.489999771118164,76453600
2020-10-09,12.829999923706055,14.800000190734863,11.899999618530273,12.020000457763672,12.020000457763672,77152800
2020-10-12,11.65999984741211,12.770000457763672,11.399999618530273,11.800000190734863,11.800000190734863,23655700
2020-10-13,11.729999542236328,12.420000076293945,11.649999618530273,11.880000114440918,11.880000114440918,10179700
2020-10-14,12.670000076293945,12.680000305175781,12.050000190734863,12.25,12.25,10761400
2020-10-15,11.989999771118164,15.100000381469727,11.989999771118164,13.829999923706055,13.829999923706055,39894800
2020-10-16,13.770000457763672,13.899999618530273,13.079999923706055,13.3100004196167,13.3100004196167,11651600
2020-10-19,13.4399995803833,14.5,13.380000114440918,13.90999984741211,13.90999984741211,13169100
2020-10-20,14.029999732971191,14.140000343322754,13.670000076293945,13.859999656677246,13.859999656677246,6604000
2020-10-21,13.899999618530273,14.420000076293945,13.800000190734863,14.100000381469727,14.100000381469727,5361900
2020-10-22,14.199999809265137,15.869999885559082,14.1899995803833,14.90999984741211,14.90999984741211,16212200
2020-10-23,15.050000190734863,15.380000114440918,14.550000190734863,15.0,15.0,6507300
2020-10-26,14.930000305175781,15.449999809265137,13.260000228881836,13.449999809265137,13.449999809265137,13376300
2020-10-27,13.710000038146973,13.710000038146973,12.359999656677246,12.6899995803833,12.6899995803833,7231000
2020-10-28,12.270000457763672,13.050000190734863,11.779999732971191,11.819999694824219,11.819999694824219,6388600
2020-10-29,11.880000114440918,12.25,11.680000305175781,11.729999542236328,11.729999542236328,4165800
2020-10-30,11.640000343322754,11.640000343322754,10.359999656677246,10.470000267028809,10.470000267028809,11546900
2020-11-02,10.819999694824219,11.09000015258789,10.5,10.75,10.75,5227000
2020-11-03,10.75,11.859999656677246,10.630000114440918,11.569999694824219,11.569999694824219,7454500
2020-11-04,11.760000228881836,11.770000457763672,10.609999656677246,10.90999984741211,10.90999984741211,5807900
2020-11-05,11.270000457763672,11.84000015258789,11.0600004196167,11.449999809265137,11.449999809265137,4705200
2020-11-06,11.520000457763672,12.170000076293945,11.319999694824219,11.859999656677246,11.859999656677246,5518200
2020-11-09,12.760000228881836,12.930000305175781,11.25,11.489999771118164,11.489999771118164,6244900
2020-11-10,11.5,11.65999984741211,10.829999923706055,11.100000381469727,11.100000381469727,3826000
2020-11-11,11.5,11.949999809265137,11.210000038146973,11.75,11.75,4882600
2020-11-12,11.739999771118164,11.869999885559082,10.970000267028809,11.130000114440918,11.130000114440918,4353300
2020-11-13,11.359999656677246,11.550000190734863,11.0,11.010000228881836,11.010000228881836,3535900
2020-11-16,11.15999984741211,12.65999984741211,10.720000267028809,12.0600004196167,12.0600004196167,9774800
2020-11-17,11.649999618530273,11.920000076293945,11.229999542236328,11.630000114440918,11.630000114440918,6678200
2020-11-18,11.800000190734863,12.039999961853027,11.5600004196167,11.569999694824219,11.569999694824219,3169200
2020-11-19,11.600000381469727,12.789999961853027,11.449999809265137,12.460000038146973,12.460000038146973,11787600
2020-11-20,12.550000190734863,13.460000038146973,12.539999961853027,12.710000038146973,12.710000038146973,8395400
2020-11-23,12.899999618530273,14.119999885559082,12.670000076293945,13.899999618530273,13.899999618530273,9599100
2020-11-24,14.229999542236328,14.260000228881836,13.300000190734863,13.670000076293945,13.670000076293945,7183200
2020-11-25,13.600000381469727,15.25,13.420000076293945,14.75,14.75,8860100
2020-11-27,15.289999961853027,16.739999771118164,14.880000114440918,16.079999923706055,16.079999923706055,12504200
2020-11-30,18.170000076293945,19.420000076293945,16.559999465942383,16.559999465942383,16.559999465942383,31983500
2020-12-01,17.110000610351562,17.399999618530273,15.760000228881836,15.800000190734863,15.800000190734863,12653900
2020-12-02,15.699999809265137,16.68000030517578,15.380000114440918,16.579999923706055,16.579999923706055,7883400
2020-12-03,16.479999542236328,16.639999389648438,15.869999885559082,16.1200008392334,16.1200008392334,6295000
2020-12-04,16.299999237060547,17.290000915527344,16.260000228881836,16.899999618530273,16.899999618530273,8972700
2020-12-07,17.0,17.5,16.219999313354492,16.350000381469727,16.350000381469727,7386300
2020-12-08,16.3700008392334,17.209999084472656,15.930000305175781,16.940000534057617,16.940000534057617,16120200
2020-12-09,13.920000076293945,14.729999542236328,13.229999542236328,13.65999984741211,13.65999984741211,24357900
2020-12-10,13.119999885559082,14.40999984741211,13.050000190734863,14.119999885559082,14.119999885559082,7558900
2020-12-11,13.90999984741211,14.0,13.020000457763672,13.3100004196167,13.3100004196167,7496900
2020-12-14,13.34000015258789,13.430000305175781,12.140000343322754,12.720000267028809,12.720000267028809,10007100
2020-12-15,12.779999732971191,14.020000457763672,12.479999542236328,13.850000381469727,13.850000381469727,8189800
2020-12-16,13.960000038146973,14.3100004196167,13.579999923706055,13.850000381469727,13.850000381469727,5865100
2020-12-17,13.960000038146973,14.979999542236328,13.59000015258789,14.829999923706055,14.829999923706055,8194900
2020-12-18,15.779999732971191,16.299999237060547,15.180000305175781,15.630000114440918,15.630000114440918,16618800
2020-12-21,15.8100004196167,16.350000381469727,15.279999732971191,15.529999732971191,15.529999732971191,9876100
2020-12-22,16.219999313354492,20.040000915527344,16.149999618530273,19.459999084472656,19.459999084472656,30652700
2020-12-23,20.170000076293945,22.350000381469727,19.1299991607666,20.56999969482422,20.56999969482422,25830300
2020-12-24,21.010000228881836,21.479999542236328,19.950000762939453,20.149999618530273,20.149999618530273,6262200
2020-12-28,21.309999465942383,21.969999313354492,20.350000381469727,20.989999771118164,20.989999771118164,8965900
2020-12-29,20.81999969482422,21.06999969482422,18.559999465942383,19.3799991607666,19.3799991607666,9241400
2020-12-30,19.3799991607666,20.0,18.850000381469727,19.260000228881836,19.260000228881836,5934400
2020-12-31,19.25,19.799999237060547,18.799999237060547,18.84000015258789,18.84000015258789,6922700
2021-01-04,19.0,19.100000381469727,17.149999618530273,17.25,17.25,10022500
2021-01-05,17.350000381469727,18.079999923706055,17.229999542236328,17.3700008392334,17.3700008392334,4961500
2021-01-06,17.34000015258789,18.979999542236328,17.329999923706055,18.360000610351562,18.360000610351562,6056200
2021-01-07,18.469999313354492,19.450000762939453,18.020000457763672,18.079999923706055,18.079999923706055,6129300
2021-01-08,18.18000030517578,18.299999237060547,17.079999923706055,17.690000534057617,17.690000534057617,6482000
2021-01-11,19.40999984741211,20.649999618530273,19.010000228881836,19.940000534057617,19.940000534057617,14908000
2021-01-12,19.959999084472656,20.399999618530273,19.31999969482422,19.950000762939453,19.950000762939453,7060700
2021-01-13,20.420000076293945,38.650001525878906,20.030000686645508,31.399999618530273,31.399999618530273,144501700
2021-01-14,38.09000015258789,43.060001373291016,33.04999923706055,39.90999984741211,39.90999984741211,93717400
2021-01-15,38.4900016784668,40.75,34.0099983215332,35.5,35.5,46866400
2021-01-19,41.54999923706055,45.52000045776367,36.63999938964844,39.36000061035156,39.36000061035156,74721900
2021-01-20,37.369998931884766,41.189998626708984,36.060001373291016,39.119998931884766,39.119998931884766,33471800
2021-01-21,39.22999954223633,44.75,37.0,43.029998779296875,43.029998779296875,56216900
2021-01-22,42.59000015258789,76.76000213623047,42.31999969482422,65.01000213623047,65.01000213623047,197157900
2021-01-25,96.7300033569336,159.17999267578125,61.130001068115234,76.79000091552734,76.79000091552734,177874000
2021-01-26,88.55999755859375,150.0,80.19999694824219,147.97999572753906,147.97999572753906,178588000
2021-01-27,354.8299865722656,380.0,249.0,347.510009765625,347.510009765625,93396700
2021-01-28,265.0,483.0,112.25,193.60000610351562,193.60000610351562,58815800
2021-01-29,379.7099914550781,413.9800109863281,250.0,325.0,325.0,50566100
2021-02-01,316.55999755859375,322.0,212.0,225.0,225.0,37382200
2021-02-02,140.75999450683594,158.0,74.22000122070312,90.0,90.0,78183100
2021-02-03,112.01000213623047,113.4000015258789,85.25,92.41000366210938,92.41000366210938,42698500
2021-02-04,91.19000244140625,91.5,53.33000183105469,53.5,53.5,62427300
2021-02-05,54.040000915527344,95.0,51.09000015258789,63.77000045776367,63.77000045776367,81345000
2021-02-08,72.41000366210938,72.66000366210938,58.02000045776367,60.0,60.0,25687300
2021-02-09,56.61000061035156,57.0,46.52000045776367,50.310001373291016,50.310001373291016,26843100
2021-02-10,50.77000045776367,62.83000183105469,46.54999923706055,51.20000076293945,51.20000076293945,36455000
2021-02-11,50.0099983215332,55.31999969482422,48.220001220703125,51.099998474121094,51.099998474121094,13056700
2021-02-12,50.75,55.2400016784668,48.04999923706055,52.400001525878906,52.400001525878906,14573300
2021-02-16,52.65999984741211,53.5,49.040000915527344,49.5099983215332,49.5099983215332,8175000
2021-02-17,49.77000045776367,51.189998626708984,44.560001373291016,45.939998626708984,45.939998626708984,9186800
2021-02-18,48.4900016784668,48.869998931884766,40.650001525878906,40.689998626708984,40.689998626708984,23990600
2021-02-19,41.279998779296875,43.88999938964844,38.5,40.59000015258789,40.59000015258789,14828200
2021-02-22,46.689998626708984,48.5099983215332,42.400001525878906,46.0,46.0,19476000
2021-02-23,44.970001220703125,46.22999954223633,40.0,44.970001220703125,44.970001220703125,7565200
2021-02-24,44.70000076293945,91.70999908447266,44.70000076293945,91.70999908447266,91.70999908447266,83111700
2021-02-25,169.55999755859375,184.67999267578125,101.0,108.7300033569336,108.7300033569336,150308800
2021-02-26,117.45999908447266,142.89999389648438,86.0,101.73999786376953,101.73999786376953,92194200
2021-03-01,104.54000091552734,133.99000549316406,99.97000122070312,120.4000015258789,120.4000015258789,49794000
2021-03-02,116.93000030517578,133.1999969482422,112.19999694824219,118.18000030517578,118.18000030517578,33783000
2021-03-03,122.51000213623047,127.75,113.12000274658203,124.18000030517578,124.18000030517578,19273900
2021-03-04,125.0,147.8699951171875,115.30000305175781,132.35000610351562,132.35000610351562,32606900
2021-03-05,128.1699981689453,151.52999877929688,127.5,137.74000549316406,137.74000549316406,30733700
2021-03-08,154.88999938964844,210.8699951171875,146.10000610351562,194.5,194.5,63565600
2021-03-09,217.7100067138672,249.85000610351562,208.50999450683594,246.89999389648438,246.89999389648438,39099300
2021-03-10,269.42999267578125,348.5,172.0,265.0,265.0,71570600
2021-03-11,241.63999938964844,281.5,232.60000610351562,260.0,260.0,28312500
2021-03-12,275.0,295.5,262.2699890136719,264.5,264.5,25845900
2021-03-15,277.5199890136719,283.0,206.0,220.13999938964844,220.13999938964844,24100400
2021-03-16,203.16000366210938,220.6999969482422,172.35000610351562,208.1699981689453,208.1699981689453,35422900
2021-03-17,217.83999633789062,231.47000122070312,204.0,209.80999755859375,209.80999755859375,16481600
2021-03-18,214.0,218.8800048828125,195.64999389648438,201.75,201.75,11764900
2021-03-19,195.72999572753906,227.0,182.66000366210938,200.27000427246094,200.27000427246094,24677300
2021-03-22,205.25999450683594,210.36000061035156,186.1999969482422,194.49000549316406,194.49000549316406,10061500
2021-03-23,197.5,201.75,177.5500030517578,181.75,181.75,14429100
2021-03-24,157.97999572753906,166.97000122070312,118.62000274658203,120.33999633789062,120.33999633789062,24177900
2021-03-25,123.48999786376953,187.5,116.9000015258789,183.75,183.75,50962300
2021-03-26,197.67999267578125,218.92999267578125,163.25999450683594,181.0,181.0,37430700
2021-03-29,180.75,193.9199981689453,173.50999450683594,181.3000030517578,181.3000030517578,10042200
2021-03-30,187.5,204.3000030517578,182.0,194.4600067138672,194.4600067138672,17094900
2021-03-31,197.5,199.4600067138672,187.11000061035156,189.82000732421875,189.82000732421875,8393800
2021-04-01,193.36000061035156,196.97000122070312,183.60000610351562,191.4499969482422,191.4499969482422,9334300
2021-04-05,171.0,195.0,164.80999755859375,186.9499969482422,186.9499969482422,14070500
2021-04-06,185.2100067138672,192.0,183.55999755859375,184.5,184.5,6218300
2021-04-07,183.22000122070312,184.5,176.11000061035156,177.97000122070312,177.97000122070312,4768300
2021-04-08,185.8800048828125,185.8800048828125,164.3000030517578,170.25999450683594,170.25999450683594,10047400
2021-04-09,169.6999969482422,171.5800018310547,153.0,158.36000061035156,158.36000061035156,9462400
2021-04-12,158.11000061035156,163.89999389648438,135.00999450683594,141.08999633789062,141.08999633789062,16683600
2021-04-13,141.8800048828125,145.3800048828125,132.0,140.99000549316406,140.99000549316406,6806900
2021-04-14,143.57000732421875,174.08999633789062,143.0,166.52999877929688,166.52999877929688,21138100
2021-04-15,163.0,166.25,152.8000030517578,156.44000244140625,156.44000244140625,7856800
2021-04-16,156.0,160.1999969482422,151.25,154.69000244140625,154.69000244140625,5214700
2021-04-19,171.8000030517578,175.1999969482422,162.3300018310547,164.3699951171875,164.3699951171875,10520200
2021-04-20,164.13999938964844,164.88999938964844,153.36000061035156,158.52999877929688,158.52999877929688,4658600
2021-04-21,158.39999389648438,162.97999572753906,155.9199981689453,158.50999450683594,158.50999450683594,3812800
2021-04-22,159.10000610351562,159.10000610351562,146.86000061035156,151.1699981689453,151.1699981689453,4345800
2021-04-23,149.0,153.66000366210938,144.6999969482422,151.17999267578125,151.17999267578125,4029100
2021-04-26,150.97999572753906,174.67999267578125,148.75999450683594,168.92999267578125,168.92999267578125,10532100
2021-04-27,183.5500030517578,188.0,173.1699981689453,177.77000427246094,177.77000427246094,8932700
2021-04-28,172.10000610351562,181.97999572753906,166.02999877929688,178.5800018310547,178.5800018310547,5788900
2021-04-29,176.55999755859375,180.86000061035156,170.75,176.19000244140625,176.19000244140625,3760300
2021-04-30,175.0,183.8000030517578,172.6999969482422,173.58999633789062,173.58999633789062,4433600
2021-05-03,177.49000549316406,177.49000549316406,159.61000061035156,162.1999969482422,162.1999969482422,5261000
2021-05-04,159.0,161.49000549316406,151.8000030517578,160.72999572753906,160.72999572753906,4007500
2021-05-05,161.8300018310547,165.5,158.3300018310547,159.47999572753906,159.47999572753906,2805400
2021-05-06,160.86000061035156,164.72000122070312,155.60000610351562,161.00999450683594,161.00999450683594,2942800
2021-05-07,160.11000061035156,167.41000366210938,157.5,161.11000061035156,161.11000061035156,2934600
2021-05-10,161.30999755859375,161.58999633789062,143.0,143.22000122070312,143.22000122070312,4806700
2021-05-11,137.0,150.5,136.5,146.9199981689453,146.9199981689453,4684600
2021-05-12,145.6999969482422,150.5,142.22999572753906,144.7899932861328,144.7899932861328,2731500
2021-05-13,147.44000244140625,169.9499969482422,146.42999267578125,164.5,164.5,8873500
2021-05-14,160.0,166.47000122070312,156.22000122070312,159.9199981689453,159.9199981689453,4293500
2021-05-17,159.85000610351562,182.5,159.0,180.60000610351562,180.60000610351562,7462100
2021-05-18,174.5399932861328,189.1999969482422,168.27000427246094,180.6699981689453,180.6699981689453,7738700
2021-05-19,171.99000549316406,178.97999572753906,164.14999389648438,168.8300018310547,168.8300018310547,4825900
2021-05-20,170.7899932861328,174.91000366210938,166.89999389648438,170.49000549316406,170.49000549316406,2478200
2021-05-21,171.0,179.24000549316406,170.3300018310547,176.7899932861328,176.7899932861328,3654700
2021-05-24,175.85000610351562,188.4600067138672,173.35000610351562,180.00999450683594,180.00999450683594,4664300
2021-05-25,181.0,217.11000061035156,181.0,209.42999267578125,209.42999267578125,14887500
2021-05-26,229.0,248.47999572753906,225.5500030517578,242.55999755859375,242.55999755859375,21119900
2021-05-27,229.8000030517578,264.0,227.0,254.1300048828125,254.1300048828125,15526300
2021-05-28,262.9700012207031,268.79998779296875,221.42999267578125,222.0,222.0,11751400
2021-06-01,233.47999572753906,254.97999572753906,227.07000732421875,249.02000427246094,249.02000427246094,9625600
2021-06-02,248.8800048828125,294.0,244.3000030517578,282.239990234375,282.239990234375,16019200
2021-06-03,265.7099914550781,274.42999267578125,242.1199951171875,258.17999267578125,258.17999267578125,8000000
2021-06-04,256.0199890136719,265.0,245.77000427246094,248.36000061035156,248.36000061035156,3637500
2021-06-07,258.0,282.0,255.1999969482422,280.010009765625,280.010009765625,6051500
2021-06-08,292.0,344.6600036621094,281.0,300.0,300.0,17439100
2021-06-09,303.1199951171875,328.0,291.510009765625,302.55999755859375,302.55999755859375,13429300
2021-06-10,282.0,288.0,211.0,220.38999938964844,220.38999938964844,22980200
2021-06-11,222.35000610351562,241.1300048828125,206.1300048828125,233.33999633789062,233.33999633789062,15580800
2021-06-14,236.5,238.00999450683594,219.1999969482422,229.44000244140625,229.44000244140625,7132600
2021-06-15,226.36000061035156,229.25,208.0,222.5,222.5,7301900
2021-06-16,215.24000549316406,228.72999572753906,209.0,222.97000122070312,222.97000122070312,5564800
2021-06-17,224.0,233.66000366210938,221.47999572753906,223.58999633789062,223.58999633789062,4608600
2021-06-18,220.17999267578125,223.49000549316406,213.0,213.82000732421875,213.82000732421875,4320300
2021-06-21,216.9499969482422,218.39999389648438,197.0,200.3699951171875,200.3699951171875,5120200
2021-06-22,217.72999572753906,225.8800048828125,209.1699981689453,220.39999389648438,220.39999389648438,8200200
2021-06-23,221.4499969482422,222.57000732421875,214.1199951171875,219.33999633789062,219.33999633789062,3555100
2021-06-24,221.16000366210938,227.4499969482422,211.60000610351562,212.30999755859375,212.30999755859375,3863300
2021-06-25,214.0,214.1999969482422,198.5,209.50999450683594,209.50999450683594,12692700
2021-06-28,211.25,224.4499969482422,210.1999969482422,213.25,213.25,4879400
2021-06-29,213.58999633789062,215.22000122070312,208.00999450683594,210.8800048828125,210.8800048828125,2480000
2021-06-30,209.69000244140625,215.27999877929688,206.94000244140625,214.13999938964844,214.13999938964844,2539600
2021-07-01,213.39999389648438,216.8300018310547,202.0,204.36000061035156,204.36000061035156,2742100
2021-07-02,204.8000030517578,205.4499969482422,196.5,202.8300018310547,202.8300018310547,2599100
2021-07-06,204.0,204.77000427246094,193.7100067138672,199.55999755859375,199.55999755859375,2768100
2021-07-07,196.0,197.5,177.55999755859375,190.66000366210938,190.66000366210938,4239500
2021-07-08,179.8300018310547,194.22000122070312,179.5,191.3800048828125,191.3800048828125,2857500
2021-07-09,190.8800048828125,194.77999877929688,186.75,191.22999572753906,191.22999572753906,1582900
2021-07-12,191.4199981689453,197.75,187.4199981689453,189.25,189.25,1636300
2021-07-13,187.67999267578125,188.7899932861328,179.0,180.05999755859375,180.05999755859375,2397900
2021-07-14,180.49000549316406,182.3800048828125,165.07000732421875,167.6199951171875,167.6199951171875,3913800
2021-07-15,160.0,171.99000549316406,158.00999450683594,166.82000732421875,166.82000732421875,4298600
2021-07-16,170.14999389648438,179.47000122070312,166.3000030517578,169.0399932861328,169.0399932861328,3287900
2021-07-19,163.3000030517578,176.0,161.22000122070312,173.49000549316406,173.49000549316406,2436900
2021-07-20,173.89999389648438,193.63999938964844,172.4199981689453,191.17999267578125,191.17999267578125,3101100
2021-07-21,187.7899932861328,195.50999450683594,182.11000061035156,185.80999755859375,185.80999755859375,2229200
2021-07-22,185.3000030517578,187.69000244140625,176.14999389648438,178.85000610351562,178.85000610351562,1413000
2021-07-23,181.0,181.60000610351562,173.83999633789062,180.36000061035156,180.36000061035156,1316200
2021-07-26,180.36000061035156,186.0399932861328,178.75999450683594,183.94000244140625,183.94000244140625,1260600
2021-07-27,183.0,185.0,176.66000366210938,178.5399932861328,178.5399932861328,1214800
2021-07-28,175.72000122070312,177.1199951171875,164.27000427246094,169.1199951171875,169.1199951171875,4100800
2021-07-29,170.60000610351562,173.88999938964844,164.50999450683594,164.86000061035156,164.86000061035156,2240000
2021-07-30,165.0,167.22000122070312,158.8699951171875,161.1199951171875,161.1199951171875,2373500
2021-08-02,162.0,163.58999633789062,155.05999755859375,157.64999389648438,157.64999389648438,2532900
2021-08-03,156.74000549316406,158.88999938964844,148.1999969482422,152.75,152.75,14450600
2021-08-04,152.72999572753906,157.7899932861328,145.69000244140625,146.8000030517578,146.8000030517578,2393500
2021-08-05,148.0,157.60000610351562,145.22000122070312,153.44000244140625,153.44000244140625,2412100
2021-08-06,154.58999633789062,156.5,150.30999755859375,151.77000427246094,151.77000427246094,1348100
2021-08-09,151.8000030517578,164.7100067138672,150.66000366210938,161.1300048828125,161.1300048828125,2249200
2021-08-10,161.36000061035156,166.89999389648438,155.35000610351562,159.0500030517578,159.0500030517578,1623300
2021-08-11,158.42999267578125,159.0500030517578,154.6199951171875,158.77999877929688,158.77999877929688,945400
2021-08-12,159.8800048828125,164.27999877929688,157.3300018310547,162.35000610351562,162.35000610351562,1317800
2021-08-13,160.47000122070312,163.5500030517578,157.41000366210938,162.52000427246094,162.52000427246094,1012700
2021-08-16,161.0,169.8800048828125,159.16000366210938,163.92999267578125,163.92999267578125,1572600
2021-08-17,161.19000244140625,169.47999572753906,161.10000610351562,163.5500030517578,163.5500030517578,1215900
2021-08-18,163.25,165.60000610351562,156.75,157.0500030517578,157.0500030517578,1411800
2021-08-19,156.77000427246094,157.99000549316406,150.77999877929688,152.89999389648438,152.89999389648438,1195400
