Date,Open,High,Low,Close,Adj Close,Volume
2020-07-01,10.25,11.479999542236328,10.25,10.960000038146973,10.929705619812012,2873800
2020-07-02,11.4399995803833,11.449999809265137,10.539999961853027,10.600000381469727,10.570700645446777,1802000
2020-07-06,11.0,11.069999694824219,10.270000457763672,10.569999694824219,10.540782928466797,1508300
2020-07-07,10.319999694824219,10.470000267028809,10.029999732971191,10.229999542236328,10.201723098754883,1735200
2020-07-08,10.180000305175781,10.829999923706055,9.819999694824219,10.819999694824219,10.790092468261719,2118200
2020-07-09,10.75,10.75,9.869999885559082,10.109999656677246,10.082054138183594,2252700
2020-07-10,10.220000267028809,10.449999809265137,9.90999984741211,10.170000076293945,10.141889572143555,1844800
2020-07-13,10.130000114440918,10.770000457763672,9.9399995803833,10.329999923706055,10.301446914672852,2147600
2020-07-14,10.369999885559082,10.800000190734863,9.960000038146973,10.680000305175781,10.650479316711426,1749000
2020-07-15,11.220000267028809,11.800000190734863,10.90999984741211,11.739999771118164,11.707549095153809,2212600
2020-07-16,11.5600004196167,12.470000267028809,11.5600004196167,11.850000381469727,11.817245483398438,2344400
2020-07-17,11.90999984741211,12.029999732971191,11.34000015258789,11.550000190734863,11.518074989318848,2062700
2020-07-20,11.470000267028809,11.65999984741211,11.039999961853027,11.350000381469727,11.31862735748291,1497800
2020-07-21,11.470000267028809,11.800000190734863,11.390000343322754,11.739999771118164,11.707549095153809,2285500
2020-07-22,11.5600004196167,12.09000015258789,11.4399995803833,12.039999961853027,12.006720542907715,1317700
2020-07-23,11.949999809265137,12.579999923706055,11.90999984741211,12.289999961853027,12.25602912902832,1474200
2020-07-24,12.270000457763672,12.40999984741211,11.789999961853027,11.800000190734863,11.767383575439453,1386400
2020-07-27,11.779999732971191,11.779999732971191,11.260000228881836,11.520000457763672,11.488158226013184,1148200
2020-07-28,11.4399995803833,11.9399995803833,11.4399995803833,11.619999885559082,11.587881088256836,919800
2020-07-29,11.8100004196167,12.59000015258789,11.720000267028809,12.279999732971191,12.24605655670166,1729400
2020-07-30,11.960000038146973,12.069999694824219,11.050000190734863,11.210000038146973,11.179014205932617,2000900
2020-07-31,11.069999694824219,11.350000381469727,10.489999771118164,10.739999771118164,10.710312843322754,1968500
2020-08-03,10.760000228881836,11.210000038146973,10.34000015258789,11.029999732971191,10.99951171875,1556200
2020-08-04,11.149999618530273,11.640000343322754,10.970000267028809,11.5,11.468213081359863,1565400
2020-08-05,11.75,12.270000457763672,11.550000190734863,12.260000228881836,12.226112365722656,1434200
2020-08-06,12.109999656677246,12.270000457763672,11.699999809265137,11.970000267028809,11.93691349029541,1048200
2020-08-07,11.90999984741211,12.739999771118164,11.739999771118164,12.710000038146973,12.6748685836792,1236500
2020-08-10,12.84000015258789,14.6899995803833,12.84000015258789,14.0600004196167,14.021137237548828,3552700
2020-08-11,14.5600004196167,14.960000038146973,14.390000343322754,14.699999809265137,14.659367561340332,2882300
2020-08-12,14.920000076293945,15.520000457763672,14.729999542236328,15.270000457763672,15.227792739868164,2028600
2020-08-13,14.979999542236328,15.0600004196167,14.109999656677246,14.319999694824219,14.280417442321777,1801300
2020-08-14,14.260000228881836,15.140000343322754,14.109999656677246,14.800000190734863,14.7590913772583,1333600
2020-08-17,14.789999961853027,15.050000190734863,14.520000457763672,14.9399995803833,14.898703575134277,1016200
2020-08-18,14.979999542236328,14.979999542236328,14.319999694824219,14.399999618530273,14.360196113586426,1909700
2020-08-19,14.430000305175781,14.729999542236328,13.369999885559082,13.550000190734863,13.51254653930664,2125600
2020-08-20,13.359999656677246,13.960000038146973,13.270000457763672,13.670000076293945,13.632214546203613,1286600
2020-08-21,13.529999732971191,14.0600004196167,13.520000457763672,13.770000457763672,13.731938362121582,773700
2020-08-24,14.100000381469727,15.640000343322754,13.930000305175781,15.600000381469727,15.556879997253418,1625400
2020-08-25,15.5,16.110000610351562,15.239999771118164,15.890000343322754,15.846078872680664,2613300
2020-08-26,15.979999542236328,17.059999465942383,15.890000343322754,17.0,16.95301055908203,3135600
2020-08-27,17.100000381469727,17.959999084472656,16.209999084472656,16.809999465942383,16.763534545898438,2932700
2020-08-28,17.110000610351562,17.440000534057617,16.540000915527344,16.799999237060547,16.753562927246094,1442900
2020-08-31,16.799999237060547,17.469999313354492,16.110000610351562,17.270000457763672,17.222265243530273,1912900
2020-09-01,17.270000457763672,18.290000915527344,17.1200008392334,18.239999771118164,18.18958282470703,1556700
2020-09-02,18.399999618530273,18.799999237060547,17.440000534057617,18.59000015258789,18.538616180419922,2337200
2020-09-03,19.459999084472656,19.579999923706055,16.559999465942383,17.8700008392334,17.820606231689453,5331400
2020-09-04,18.6299991607666,19.360000610351562,18.15999984741211,19.280000686645508,19.226709365844727,2244000
2020-09-08,18.770000457763672,19.399999618530273,17.899999618530273,17.90999984741211,17.86049461364746,2276000
2020-09-09,18.059999465942383,18.40999984741211,17.549999237060547,17.989999771118164,17.94027328491211,1386800
2020-09-10,18.049999237060547,18.440000534057617,17.530000686645508,17.649999618530273,17.601213455200195,970900
2020-09-11,17.850000381469727,18.31999969482422,17.399999618530273,17.780000686645508,17.730854034423828,1034300
2020-09-14,18.110000610351562,19.579999923706055,18.0,18.700000762939453,18.648311614990234,1608200
2020-09-15,18.829999923706055,19.1200008392334,18.209999084472656,18.280000686645508,18.229473114013672,1178200
2020-09-16,18.43000030517578,19.059999465942383,18.059999465942383,18.299999237060547,18.24941635131836,1241300
2020-09-17,17.889999389648438,19.34000015258789,17.850000381469727,18.790000915527344,18.73806381225586,1460600
2020-09-18,18.860000610351562,18.989999771118164,18.209999084472656,18.260000228881836,18.20952796936035,1857600
2020-09-21,17.530000686645508,17.75,16.559999465942383,17.31999969482422,17.272125244140625,1673300
2020-09-22,17.420000076293945,17.93000030517578,16.739999771118164,17.860000610351562,17.81063461303711,1310600
2020-09-23,18.06999969482422,18.6299991607666,17.5,17.510000228881836,17.46160125732422,883800
2020-09-24,17.350000381469727,18.110000610351562,16.8700008392334,17.65999984741211,17.61118507385254,734900
2020-09-25,17.520000457763672,18.219999313354492,17.479999542236328,18.149999618530273,18.099830627441406,804800
2020-09-28,18.579999923706055,19.43000030517578,18.40999984741211,19.389999389648438,19.336402893066406,1402900
2020-09-29,19.309999465942383,19.559999465942383,17.90999984741211,17.950000762939453,17.9003849029541,1162600
2020-09-30,18.1299991607666,19.040000915527344,18.059999465942383,18.700000762939453,18.648311614990234,1293000
2020-10-01,18.829999923706055,19.34000015258789,18.360000610351562,19.110000610351562,19.057178497314453,1082200
2020-10-02,18.299999237060547,19.65999984741211,18.25,19.510000228881836,19.456071853637695,875000
2020-10-05,19.780000686645508,20.329999923706055,19.610000610351562,20.040000915527344,19.984607696533203,944200
2020-10-06,20.219999313354492,20.469999313354492,18.770000457763672,18.850000381469727,18.797897338867188,1002600
2020-10-07,19.200000762939453,20.270000457763672,19.200000762939453,20.209999084472656,20.154136657714844,1281900
2020-10-08,20.489999771118164,20.969999313354492,20.360000610351562,20.90999984741211,20.852201461791992,661500
2020-10-09,21.010000228881836,21.59000015258789,20.81999969482422,20.829999923706055,20.772422790527344,777300
2020-10-12,20.829999923706055,21.290000915527344,20.59000015258789,21.040000915527344,20.981843948364258,700900
2020-10-13,19.729999542236328,22.139999389648438,19.729999542236328,21.84000015258789,21.779632568359375,1431600
2020-10-14,22.020000457763672,22.520000457763672,21.389999389648438,22.149999618530273,22.088773727416992,736900
2020-10-15,21.780000686645508,22.760000228881836,21.530000686645508,22.540000915527344,22.477697372436523,715000
2020-10-16,22.6200008392334,23.399999618530273,22.610000610351562,22.790000915527344,22.727006912231445,1174800
2020-10-19,22.84000015258789,23.440000534057617,22.459999084472656,23.06999969482422,23.0062313079834,1478400
2020-10-20,23.510000228881836,24.469999313354492,23.459999084472656,23.59000015258789,23.524795532226562,1430600
2020-10-21,23.920000076293945,24.260000228881836,23.149999618530273,24.010000228881836,23.943634033203125,1998400
2020-10-22,24.059999465942383,25.030000686645508,23.920000076293945,24.59000015258789,24.522029876708984,985100
2020-10-23,24.799999237060547,26.969999313354492,24.520000457763672,26.540000915527344,26.466642379760742,1847100
2020-10-26,25.899999618530273,26.389999389648438,24.770000457763672,25.670000076293945,25.599044799804688,2604700
2020-10-27,25.90999984741211,26.450000762939453,25.190000534057617,25.329999923706055,25.259984970092773,1225100
2020-10-28,24.729999542236328,25.079999923706055,23.600000381469727,23.850000381469727,23.784076690673828,1682500
2020-10-29,24.290000915527344,24.559999465942383,23.600000381469727,24.190000534057617,24.123136520385742,1430600
2020-10-30,24.149999618530273,24.399999618530273,21.770000457763672,22.280000686645508,22.218416213989258,1858800
2020-11-02,22.700000762939453,23.1200008392334,21.31999969482422,22.719999313354492,22.657197952270508,1702800
2020-11-03,23.149999618530273,23.360000610351562,21.719999313354492,22.440000534057617,22.377973556518555,1620100
2020-11-04,21.959999084472656,22.100000381469727,20.8799991607666,21.68000030517578,21.620075225830078,1137100
2020-11-05,21.940000534057617,23.989999771118164,21.90999984741211,23.420000076293945,23.35526466369629,1097500
2020-11-06,23.489999771118164,23.68000030517578,22.06999969482422,22.5,22.437807083129883,879600
2020-11-09,24.850000381469727,26.239999771118164,23.799999237060547,24.600000381469727,24.53200340270996,1779100
2020-11-10,24.719999313354492,25.899999618530273,23.940000534057617,25.770000457763672,25.698768615722656,1121400
2020-11-11,25.770000457763672,26.06999969482422,24.290000915527344,25.1200008392334,25.050565719604492,943900
2020-11-12,24.690000534057617,25.25,24.1299991607666,24.770000457763672,24.701534271240234,1177500
2020-11-13,25.18000030517578,26.270000457763672,24.799999237060547,26.25,26.17744255065918,679500
2020-11-16,27.209999084472656,27.84000015258789,26.290000915527344,26.799999237060547,26.725921630859375,998300
2020-11-17,26.309999465942383,28.809999465942383,26.309999465942383,28.639999389648438,28.560834884643555,1112100
2020-11-18,28.75,29.559999465942383,26.920000076293945,26.969999313354492,26.895450592041016,1173800
2020-11-19,27.0,28.75,26.700000762939453,28.719999313354492,28.640613555908203,736800
2020-11-20,28.649999618530273,29.479999542236328,28.489999771118164,29.3799991607666,29.298789978027344,717300
2020-11-23,30.0,31.020000457763672,29.860000610351562,30.809999465942383,30.724838256835938,1014500
2020-11-24,31.43000030517578,32.220001220703125,29.530000686645508,31.200000762939453,31.113759994506836,1605800
2020-11-25,30.760000228881836,32.029998779296875,30.68000030517578,31.1200008392334,31.033981323242188,1566100
2020-11-27,31.389999389648438,31.75,31.0,31.43000030517578,31.343124389648438,501900
2020-11-30,31.5,31.93000030517578,30.079999923706055,30.290000915527344,30.206275939941406,1612700
2020-12-01,31.110000610351562,31.18000030517578,28.780000686645508,30.510000228881836,30.42566680908203,1137800
2020-12-02,30.170000076293945,30.299999237060547,28.790000915527344,29.809999465942383,29.727602005004883,1370000
2020-12-03,29.829999923706055,31.0,28.190000534057617,29.469999313354492,29.388540267944336,3010900
2020-12-04,29.829999923706055,29.829999923706055,27.459999084472656,29.280000686645508,29.199068069458008,1805500
2020-12-07,29.149999618530273,30.1299991607666,28.709999084472656,29.34000015258789,29.258901596069336,1330400
2020-12-08,28.56999969482422,29.25,27.969999313354492,28.299999237060547,28.22177505493164,1720300
2020-12-09,28.68000030517578,28.84000015258789,27.170000076293945,27.43000030517578,27.35418128967285,1272400
2020-12-10,27.0,27.6299991607666,26.600000381469727,27.229999542236328,27.154733657836914,917200
2020-12-11,27.0,27.170000076293945,26.200000762939453,26.389999389648438,26.317054748535156,840600
2020-12-14,26.670000076293945,26.93000030517578,24.920000076293945,24.93000030517578,24.86109161376953,1948300
2020-12-15,25.18000030517578,27.09000015258789,25.100000381469727,27.06999969482422,26.995174407958984,1203700
2020-12-16,27.219999313354492,28.209999084472656,26.360000610351562,26.799999237060547,26.725921630859375,1036400
2020-12-17,26.940000534057617,27.200000762939453,26.450000762939453,26.860000610351562,26.785757064819336,711700
2020-12-18,26.940000534057617,27.969999313354492,26.6200008392334,26.920000076293945,26.845590591430664,1905900
2020-12-21,26.010000228881836,27.56999969482422,25.639999389648438,27.459999084472656,27.384096145629883,1050100
2020-12-22,27.75,28.389999389648438,27.34000015258789,27.3700008392334,27.294347763061523,813200
2020-12-23,27.5,28.200000762939453,26.670000076293945,27.059999465942383,26.98520278930664,730100
2020-12-24,27.0,27.290000915527344,26.030000686645508,26.15999984741211,26.087690353393555,444000
2020-12-28,26.739999771118164,28.75,26.5,27.8700008392334,27.792964935302734,1642500
2020-12-29,27.899999618530273,28.100000381469727,26.299999237060547,27.0,26.925369262695312,1138600
2020-12-30,27.049999237060547,28.40999984741211,27.049999237060547,27.75,27.673295974731445,1008900
2020-12-31,27.860000610351562,28.100000381469727,27.149999618530273,27.270000457763672,27.194623947143555,680400
2021-01-04,27.440000534057617,28.610000610351562,27.170000076293945,27.649999618530273,27.573572158813477,1296700
2021-01-05,27.469999313354492,29.790000915527344,27.25,29.6200008392334,29.538127899169922,1111900
2021-01-06,29.81999969482422,33.849998474121094,29.760000228881836,33.060001373291016,32.96862030029297,2176700
2021-01-07,33.0,35.5,32.970001220703125,35.18000030517578,35.082759857177734,2307800
2021-01-08,36.2400016784668,38.439998626708984,34.90999984741211,37.29999923706055,37.1968994140625,1988100
2021-01-11,36.27000045776367,40.04999923706055,35.400001525878906,39.16999816894531,39.061729431152344,1600300
2021-01-12,40.93000030517578,42.90999984741211,38.880001068115234,42.779998779296875,42.66175079345703,2642000
2021-01-13,42.439998626708984,42.560001373291016,38.65999984741211,39.0099983215332,38.90217208862305,1386200
2021-01-14,40.0,42.36000061035156,39.40999984741211,41.38999938964844,41.27559280395508,2060800
2021-01-15,40.79999923706055,41.0,39.0,39.36000061035156,39.25120544433594,1125800
2021-01-19,40.0,40.2400016784668,36.5,37.09000015258789,36.98748016357422,1287600
2021-01-20,37.099998474121094,38.099998474121094,36.06999969482422,36.36000061035156,36.259498596191406,892500
2021-01-21,36.779998779296875,36.779998779296875,35.279998779296875,35.38999938964844,35.292179107666016,1003300
2021-01-22,35.0,36.459999084472656,34.36000061035156,36.310001373291016,36.20963668823242,949100
2021-01-25,36.400001525878906,38.08000183105469,35.029998779296875,36.61000061035156,36.50880813598633,1214600
2021-01-26,36.97999954223633,40.22999954223633,36.16999816894531,40.06999969482422,39.95924377441406,2110000
2021-01-27,38.939998626708984,44.2599983215332,38.5,41.529998779296875,41.41520690917969,3074000
2021-01-28,41.34000015258789,41.810001373291016,36.279998779296875,37.0,36.897727966308594,2140100
2021-01-29,37.939998626708984,40.849998474121094,37.2400016784668,40.619998931884766,40.507720947265625,2668100
2021-02-01,41.13999938964844,42.869998931884766,39.79999923706055,41.599998474121094,41.48501205444336,1625500
2021-02-02,42.02000045776367,43.869998931884766,41.0099983215332,42.2400016784668,42.12324523925781,986800
2021-02-03,42.599998474121094,44.91999816894531,42.04999923706055,44.58000183105469,44.45677947998047,862000
2021-02-04,44.599998474121094,46.349998474121094,44.18000030517578,45.310001373291016,45.18476104736328,937000
2021-02-05,45.470001220703125,45.939998626708984,42.88999938964844,43.36000061035156,43.240150451660156,583600
2021-02-08,43.54999923706055,43.70000076293945,41.2400016784668,43.33000183105469,43.21023178100586,889100
2021-02-09,43.209999084472656,43.81999969482422,40.400001525878906,40.54999923706055,40.43791580200195,1196000
2021-02-10,41.0099983215332,44.54999923706055,40.61000061035156,44.209999084472656,44.087799072265625,2036400
2021-02-11,44.349998474121094,46.7400016784668,44.02000045776367,44.95000076293945,44.82575607299805,1273800
2021-02-12,44.45000076293945,45.0,42.880001068115234,43.61000061035156,43.48945617675781,682500
2021-02-16,44.119998931884766,45.849998474121094,43.63999938964844,45.25,45.12492370605469,731900
2021-02-17,45.06999969482422,45.209999084472656,41.900001525878906,42.470001220703125,42.35261154174805,849100
2021-02-18,42.439998626708984,43.04999923706055,41.09000015258789,42.52000045776367,42.402469635009766,750600
2021-02-19,42.97999954223633,46.27000045776367,42.0099983215332,46.15999984741211,46.03240966796875,1085000
2021-02-22,45.81999969482422,49.130001068115234,45.220001220703125,49.119998931884766,48.98422622680664,1235600
2021-02-23,48.7400016784668,49.459999084472656,46.22999954223633,49.400001525878906,49.26345443725586,1408100
2021-02-24,49.75,50.880001068115234,46.95000076293945,49.0099983215332,48.87453079223633,1175200
2021-02-25,50.0,51.59000015258789,49.720001220703125,51.0,50.859031677246094,1347400
2021-02-26,50.7400016784668,51.75,48.70000076293945,49.779998779296875,49.64240264892578,900900
2021-03-01,50.689998626708984,51.75,49.34000015258789,51.540000915527344,51.39753723144531,614100
2021-03-02,51.61000061035156,53.150001525878906,51.310001373291016,52.34000015258789,52.19532775878906,532400
2021-03-03,52.959999084472656,53.70000076293945,51.779998779296875,51.81999969482422,51.67676544189453,500100
2021-03-04,51.4900016784668,53.06999969482422,49.040000915527344,50.900001525878906,50.759307861328125,836700
2021-03-05,51.41999816894531,52.59000015258789,48.41999816894531,52.5,52.35488510131836,986700
2021-03-08,53.310001373291016,56.63999938964844,52.5099983215332,56.290000915527344,56.1344108581543,1097700
2021-03-09,56.84000015258789,57.13999938964844,54.16999816894531,56.810001373291016,56.65297317504883,859200
2021-03-10,56.81999969482422,58.189998626708984,56.029998779296875,57.4900016784668,57.331092834472656,602300
2021-03-11,57.900001525878906,58.790000915527344,56.5099983215332,58.5099983215332,58.348270416259766,603000
2021-03-12,58.900001525878906,59.38999938964844,57.34000015258789,58.65999984741211,58.49785614013672,726500
2021-03-15,58.560001373291016,60.630001068115234,58.150001525878906,59.33000183105469,59.16600799560547,586700
2021-03-16,58.970001220703125,60.22999954223633,57.439998626708984,59.810001373291016,59.64468002319336,1357700
2021-03-17,59.869998931884766,60.4900016784668,57.5,59.349998474121094,59.18594741821289,740200
2021-03-18,62.939998626708984,65.83999633789062,60.13999938964844,61.349998474121094,61.180419921875,2033900
2021-03-19,61.22999954223633,61.529998779296875,58.900001525878906,60.959999084472656,60.791500091552734,1582500
2021-03-22,62.20000076293945,63.279998779296875,56.61000061035156,57.11000061035156,56.95214080810547,1419400
2021-03-23,56.150001525878906,57.56999969482422,53.900001525878906,54.119998931884766,53.97040557861328,912100
2021-03-24,55.15999984741211,56.86000061035156,52.5,52.52000045776367,52.37482833862305,674100
2021-03-25,50.75,58.27000045776367,50.0099983215332,57.099998474121094,56.942169189453125,1185600
2021-03-26,58.22999954223633,59.630001068115234,56.369998931884766,58.880001068115234,58.71725082397461,657600
2021-03-29,59.08000183105469,59.900001525878906,56.279998779296875,57.02000045776367,56.86239242553711,781900
2021-03-30,57.189998626708984,59.810001373291016,57.189998626708984,58.61000061035156,58.447998046875,594700
2021-03-31,58.38999938964844,59.18000030517578,56.97999954223633,57.97999954223633,57.81973648071289,821100
2021-04-01,58.81999969482422,58.90999984741211,55.83000183105469,57.31999969482422,57.16156005859375,850800
2021-04-05,58.0,59.93000030517578,56.61000061035156,58.97999954223633,58.81697082519531,640900
2021-04-06,59.36000061035156,61.4900016784668,57.369998931884766,57.97999954223633,57.81973648071289,643900
2021-04-07,57.7400016784668,58.47999954223633,56.2599983215332,56.72999954223633,56.57319259643555,555400
2021-04-08,56.119998931884766,57.75,54.380001068115234,57.59000015258789,57.430816650390625,711600
2021-04-09,57.81999969482422,61.369998931884766,56.95000076293945,61.08000183105469,60.911170959472656,749300
2021-04-12,64.22000122070312,68.29000091552734,63.0099983215332,65.91999816894531,65.73778533935547,3190000
2021-04-13,67.36000061035156,67.36000061035156,61.52000045776367,64.36000061035156,64.1821060180664,1034200
2021-04-14,63.869998931884766,66.43000030517578,63.77000045776367,64.88999938964844,64.71063995361328,577700
2021-04-15,64.94999694824219,65.31999969482422,63.130001068115234,63.47999954223633,63.304534912109375,531600
2021-04-16,63.650001525878906,64.9000015258789,62.34000015258789,63.459999084472656,63.28458786010742,606400
2021-04-19,63.4900016784668,64.08999633789062,60.880001068115234,60.9900016784668,60.82141876220703,501400
2021-04-20,60.20000076293945,60.560001373291016,55.369998931884766,57.4900016784668,57.331092834472656,1166700
2021-04-21,57.58000183105469,60.540000915527344,56.869998931884766,60.2599983215332,60.09343338012695,599600
2021-04-22,60.7400016784668,62.20000076293945,59.63999938964844,61.7400016784668,61.5693473815918,591100
2021-04-23,62.20000076293945,64.56999969482422,61.25,63.58000183105469,63.404258728027344,609200
2021-04-26,63.959999084472656,65.26000213623047,61.36000061035156,61.72999954223633,61.55937194824219,470600
2021-04-27,61.33000183105469,64.73999786376953,61.04999923706055,63.369998931884766,63.1948356628418,643000
2021-04-28,63.5,64.12000274658203,62.209999084472656,62.83000183105469,62.656333923339844,425400
2021-04-29,63.0,64.0,60.349998474121094,60.66999816894531,60.50230026245117,452000
2021-04-30,59.900001525878906,60.880001068115234,59.25,59.75,59.58484649658203,503100
2021-05-03,60.70000076293945,63.27000045776367,60.22999954223633,62.95000076293945,62.7760009765625,1069300
2021-05-04,62.380001068115234,63.2599983215332,60.5,63.0099983215332,62.83583068847656,384000
2021-05-05,63.459999084472656,64.61000061035156,61.65999984741211,63.56999969482422,63.394287109375,492400
2021-05-06,64.0,65.70999908447266,62.970001220703125,65.0199966430664,64.84027099609375,661900
2021-05-07,64.5199966430664,66.0,63.439998626708984,65.01000213623047,64.83030700683594,505800
2021-05-10,65.37000274658203,68.36000061035156,62.61000061035156,62.68000030517578,62.506744384765625,819100
2021-05-11,61.34000015258789,63.7599983215332,59.47999954223633,63.189998626708984,63.01533508300781,924800
2021-05-12,63.0,63.400001525878906,57.93000030517578,58.29999923706055,58.138851165771484,511200
2021-05-13,58.58000183105469,61.61000061035156,58.11000061035156,60.209999084472656,60.04357147216797,632400
2021-05-14,60.939998626708984,63.54999923706055,60.83000183105469,63.459999084472656,63.28458786010742,452300
2021-05-17,63.0,65.72000122070312,62.59000015258789,65.52999877929688,65.34886932373047,466800
2021-05-18,66.01000213623047,66.19999694824219,61.7599983215332,62.77000045776367,62.59649658203125,591100
2021-05-19,60.63999938964844,61.130001068115234,57.77000045776367,58.68000030517578,58.51780319213867,1201200
2021-05-20,58.689998626708984,58.779998779296875,55.75,57.45000076293945,57.291202545166016,848900
2021-05-21,58.33000183105469,59.04999923706055,56.349998474121094,57.540000915527344,57.38095474243164,453600
2021-05-24,57.4900016784668,58.290000915527344,56.20000076293945,57.619998931884766,57.460731506347656,689500
2021-05-25,57.90999984741211,59.13999938964844,56.810001373291016,56.88999938964844,56.732749938964844,379200
2021-05-26,57.79999923706055,61.27000045776367,57.56999969482422,59.77000045776367,59.60478973388672,700100
2021-05-27,60.5099983215332,62.88999938964844,59.77000045776367,62.459999084472656,62.287353515625,820900
2021-05-28,63.0,63.0,60.09000015258789,60.58000183105469,60.41255187988281,596400
2021-06-01,60.869998931884766,64.04000091552734,60.599998474121094,63.040000915527344,62.865753173828125,811500
2021-06-02,63.18000030517578,63.18000030517578,60.540000915527344,62.099998474121094,61.928348541259766,741500
2021-06-03,62.43000030517578,62.43000030517578,59.2599983215332,60.70000076293945,60.53221893310547,526900
2021-06-04,60.529998779296875,61.310001373291016,57.91999816894531,58.869998931884766,58.707275390625,492300
2021-06-07,59.189998626708984,60.68000030517578,57.439998626708984,58.70000076293945,58.53774642944336,1057900
2021-06-08,58.779998779296875,62.279998779296875,58.13999938964844,61.439998626708984,61.270172119140625,988700
2021-06-09,61.439998626708984,62.45000076293945,59.56999969482422,61.040000915527344,60.871280670166016,1043500
2021-06-10,65.5,74.80000305175781,65.0,69.58000183105469,69.3876724243164,7598900
2021-06-11,68.8499984741211,74.77999877929688,68.27999877929688,74.75,74.54338073730469,2756000
2021-06-14,74.75,76.76000213623047,73.30000305175781,75.56999969482422,75.36111450195312,1447800
2021-06-15,75.87999725341797,76.51000213623047,71.91999816894531,74.25,74.04476165771484,938000
2021-06-16,74.02999877929688,75.91000366210938,71.51000213623047,75.37999725341797,75.17163848876953,952900
2021-06-17,76.27999877929688,77.23999786376953,72.33999633789062,74.27999877929688,74.0746841430664,1021400
2021-06-18,73.0999984741211,74.8499984741211,72.56999969482422,73.05000305175781,72.84808349609375,1321300
2021-06-21,73.44000244140625,76.05000305175781,72.8499984741211,75.48999786376953,75.28133392333984,918400
2021-06-22,75.06999969482422,78.45999908447266,74.52999877929688,76.08999633789062,75.87967681884766,1052300
2021-06-23,75.72000122070312,79.19000244140625,75.19000244140625,78.70999908447266,78.49243927001953,724500
2021-06-24,79.5,80.19999694824219,77.81999969482422,79.5199966430664,79.3001937866211,791200
2021-06-25,80.08999633789062,83.0,77.91999816894531,78.01000213623047,77.79437255859375,3476000
2021-06-28,78.58000183105469,78.66000366210938,76.45999908447266,78.12999725341797,77.9140396118164,770500
2021-06-29,78.26000213623047,78.9800033569336,76.0999984741211,76.37000274658203,76.15890502929688,568400
2021-06-30,76.16999816894531,81.0,76.16999816894531,80.79000091552734,80.56668853759766,665900
2021-07-01,81.0999984741211,82.0,79.22000122070312,79.80000305175781,79.57942962646484,557600
2021-07-02,79.4800033569336,80.16000366210938,78.11000061035156,79.0199966430664,78.80157470703125,419000
2021-07-06,79.19999694824219,79.61000061035156,75.27999877929688,77.93000030517578,77.71459197998047,533000
2021-07-07,77.04000091552734,77.86000061035156,74.2699966430664,76.12000274658203,75.90959930419922,533900
2021-07-08,73.58000183105469,75.2300033569336,70.61000061035156,73.95999908447266,73.75556945800781,723400
2021-07-09,75.0,77.94999694824219,75.0,76.62999725341797,76.41818237304688,532000
2021-07-12,75.51000213623047,77.95999908447266,74.11000061035156,76.93000030517578,76.71736145019531,386100
2021-07-13,76.51000213623047,76.87999725341797,74.01000213623047,75.19999694824219,74.99213409423828,529600
2021-07-14,75.86000061035156,76.98999786376953,72.94000244140625,73.11000061035156,72.90791320800781,498900
2021-07-15,72.0,72.25,68.62000274658203,70.30000305175781,70.1056900024414,683100
2021-07-16,71.19999694824219,71.91999816894531,66.97000122070312,67.25,67.06411743164062,671000
2021-07-19,64.69000244140625,65.86000061035156,62.189998626708984,62.88999938964844,62.716163635253906,984500
2021-07-20,63.290000915527344,66.2300033569336,62.119998931884766,65.20999908447266,65.02975463867188,810200
2021-07-21,66.19000244140625,69.30000305175781,66.0999984741211,68.56999969482422,68.38046264648438,542000
2021-07-22,68.55999755859375,68.55999755859375,65.04000091552734,66.91000366210938,66.72505950927734,463200
2021-07-23,67.94999694824219,67.94999694824219,65.63999938964844,67.2300033569336,67.04417419433594,429200
2021-07-26,67.66999816894531,68.58000183105469,66.18000030517578,67.69999694824219,67.51287078857422,329500
2021-07-27,67.04000091552734,68.2699966430664,64.08000183105469,65.6500015258789,65.46853637695312,513000
2021-07-28,66.01000213623047,66.79000091552734,63.900001525878906,65.12000274658203,64.94000244140625,440500
2021-07-29,65.12000274658203,67.01000213623047,65.0199966430664,65.44000244140625,65.44000244140625,368800
2021-07-30,64.83999633789062,67.48999786376953,64.0,64.33999633789062,64.33999633789062,308700
2021-08-02,64.80999755859375,67.36000061035156,64.12999725341797,65.4000015258789,65.4000015258789,710300
2021-08-03,65.62000274658203,66.86000061035156,62.369998931884766,65.76000213623047,65.76000213623047,453800
2021-08-04,64.61000061035156,65.0999984741211,61.70000076293945,61.72999954223633,61.72999954223633,502100
2021-08-05,61.380001068115234,63.70000076293945,60.470001220703125,61.79999923706055,61.79999923706055,558600
2021-08-06,63.220001220703125,64.4800033569336,62.54999923706055,63.099998474121094,63.099998474121094,438900
2021-08-09,62.349998474121094,64.20999908447266,61.36000061035156,63.29999923706055,63.29999923706055,437900
2021-08-10,63.59000015258789,68.45999908447266,63.59000015258789,67.94000244140625,67.94000244140625,521900
2021-08-11,67.54000091552734,68.80000305175781,66.08000183105469,68.66000366210938,68.66000366210938,517400
2021-08-12,68.80000305175781,70.33999633789062,65.83000183105469,68.58999633789062,68.58999633789062,427200
2021-08-13,68.13999938964844,70.12000274658203,67.41999816894531,68.9800033569336,68.9800033569336,566300
2021-08-16,68.81999969482422,69.41000366210938,67.06999969482422,68.81999969482422,68.81999969482422,561900
2021-08-17,67.20999908447266,67.61000061035156,63.060001373291016,64.68000030517578,64.68000030517578,819300
2021-08-18,64.2300033569336,67.80000305175781,64.2300033569336,66.22000122070312,66.22000122070312,552000
2021-08-19,65.33999633789062,67.69999694824219,64.51000213623047,66.61000061035156,66.61000061035156,678600
